...............
----------------------------------------------------------------------
Ran 15 tests in 22.984s

OK
Name             Stmts   Miss Branch BrPart  Cover   Missing
------------------------------------------------------------
Collatz.py          39      0     12      0   100%
TestCollatz.py      68      0      0      0   100%
------------------------------------------------------------
TOTAL              107      0     12      0   100%
