1 10 20
100 200 125
201 210 89
900 1000 174
1 1 1
2 1 2
100 300 128
300 100 128
100 100 26
400 400 28
999 99999 351
100000 200000 383
200000 300000 443
300000 400000 441
400000 500000 449
500000 600000 470
600000 700000 509
700000 800000 504
800000 900000 525
900000 999999 507
1 999999 525
999999 1 525
240 128321 354
234567 34566 443
9876 234 262
65432 1234 340
76543 234 340
555555 555554 147
1234 65432 340
1 9992 262
64 23 113
240888 240888 120
2 2 2
4 4 3
8 8 4
16 16 5
5 5 6
32 32 6
10 10 7
64 64 7
3 3 8
20 20 8
21 21 8
128 128 8
6 6 9
40 40 9
42 42 9
256 256 9
12 12 10
13 13 10
80 80 10
84 84 10
85 85 10
512 512 10
24 24 11
26 26 11
160 160 11
168 168 11
170 170 11
48 52 25
52 52 12
53 53 12
320 320 12
336 336 12
340 340 12
341 341 12
871 871 179
937 937 174
703 703 171
327 327 144
649 649 145
654 654 145
655 655 145
667 667 145
1 10 20
9 9 20
1 100 119
97 97 119
1 1000 179
1 10000 262
1 100000 351
1234 421 182
23 1231 182
543 1233 182
124 977 179
45 743 171
128 154 122
1291 634 182
1893 3442 217
1992 5234 238
4845 2343 238
2213 1764 175
987 4567 238
8765 34 262
1 34 112
555 999 179
444 322 144
445 3221 217
1234 2345 183
4567 6789 262
876 987 174
2345 6789 262
8765 4567 262
8909 876 262
543 456 142
7 23 21
4 56 113
788 7 171
6 5 9
43 456 144
7 8 17
234 567 144
898 765 179
434 678 145
987 654 179
3234 6789 262
8765 4312 262
3456 7876 262
543 2 144
12345 67898 340
76543 21345 340
67893 45678 340
9876 54323 340
45678 4321 324
23456 76543 340
2345 6798 262
7654 5698 262
2345 6789 262
8765 4345 262
678 765 171
432 456 116
7 8 17
98 7 119
6 543 144
2 5 8
678 96 145
54324 5 340
678 9876 262
5 4323 238
4567 876 238
543 2 144
3 412 144
316 7809 262
8 6 17
54345 6 340
76543 212 340
345 6 144
