1 10 20
100 200 125
201 210 89
900 1000 174
11 11 15
1 1 1
10 5 20
999999 999999 259
870242 279708 525
598182 591244 403
962812 52245 525
573095 120042 470
867537 601070 525
222358 749848 509
566325 563855 421
668375 757625 504
609097 921114 525
571204 897167 525
111708 864882 525
469412 57022 449
973317 566099 525
175293 424466 449
173453 37363 383
611845 649217 509
240509 780070 509
102563 67884 351
963365 976716 458
718118 127737 509
967274 75675 525
747901 912800 525
421376 746146 509
428219 97850 449
699242 479514 509
948951 652292 525
210844 258245 443
439964 836914 509
714805 443400 509
892199 739753 525
185835 307358 443
259564 142010 443
733928 119060 509
767996 524168 509
549514 691555 509
561002 881197 525
753963 374816 509
261951 758458 509
284631 801269 509
37699 134452 354
593356 798321 509
688437 513465 509
99473 928750 525
336869 997913 525
608433 927777 525
695953 52284 509
389605 121293 443
542973 688580 509
95946 459534 449
107274 755473 509
785510 465196 509
941377 259050 525
996646 705494 525
978859 253417 525
508074 404848 449
188488 643374 509
299677 313685 384
279470 523878 470
926753 730846 525
325675 539727 470
846682 417746 525
917058 47440 525
674072 489244 509
455399 727163 509
775636 682926 504
746205 658271 504
738771 54182 509
368625 838052 525
146476 487929 449
434485 819150 509
72848 587260 470
82007 422488 449
551027 132843 470
773268 414514 509
917821 851452 476
442538 16126 449
985694 382512 525
511659 93959 449
448098 563385 470
581993 973963 525
923165 302659 525
68824 461965 449
786942 927524 525
536656 556085 452
885230 685922 525
993179 806032 525
788398 93110 509
4532 388217 443
574387 802888 509
593948 317199 470
26226 354172 443
321046 905991 525
228551 537152 470
476524 965585 525
277641 20223 443
53889 298174 443
282821 274688 389
503447 339201 449
215598 663382 509
72481 186366 383
