Name             Stmts   Miss Branch BrPart  Cover   Missing
------------------------------------------------------------
Collatz.py          12      0      2      0   100%
TestCollatz.py      84      2      0      0    98%   69-70
------------------------------------------------------------
TOTAL               96      2      2      0    98%
