1 10 20
100 200 125
201 210 89
900 1000 174
1 999999 525
999999 1 525
10 1 20
1 1 1
6247 8455 257
6142 320 238
7011 2103 262
6272 4496 262
2163 7995 262
7619 6512 257
2657 6946 262
1956 6577 262
6051 3827 236
4929 7317 262
4180 8508 262
1033 9635 262
3830 5087 215
4397 6182 262
1541 3031 217
8905 3537 262
7238 5235 262
8054 2811 262
2666 9282 262
6743 1625 262
3231 4721 238
8681 4236 262
4446 3235 238
2190 4650 238
1920 9119 262
5368 8740 262
2416 6964 262
4031 4840 215
6886 5998 262
8945 6072 262
8931 7072 252
580 1901 182
102 2951 217
600 4004 238
6456 9349 260
5673 8393 262
1695 1011 182
2126 4637 238
9355 6004 262
4327 2043 238
5904 8247 262
3092 5863 238
7946 7494 221
2433 8904 262
9926 5122 262
2158 8316 262
2598 7782 262
8132 1829 262
9949 7285 260
1808 2728 209
9168 5128 262
4500 5963 236
3799 1593 238
5327 184 238
3268 4987 238
9136 1642 262
7273 5883 262
3128 2186 217
3074 4498 238
9882 7881 260
7568 1701 262
5913 5159 236
6429 7704 257
6729 8766 257
7249 1653 262
7445 261 262
2993 6452 262
989 1801 182
700 5453 238
6316 9023 257
3453 7358 262
2466 1343 209
6472 4340 262
7565 9535 260
2916 7599 262
3466 3555 181
5825 8431 262
3963 9515 262
4397 1799 238
8388 1277 262
2508 3307 217
4804 1423 238
4519 736 238
9019 3469 262
4172 9218 262
5465 1052 238
2129 5618 238
2068 38 182
249 2059 182
3081 5579 238
8548 8006 234
6501 4226 262
2144 7758 262
841 6306 262
3686 6977 262
4663 2888 238
5102 7648 262
5723 139 238
672 6120 238
7467 7941 221
