1 10 20
100 200 125
201 210 89
900 1000 174
629501 130481 509
112766 351296 443
700184 639891 442
214064 860227 525
921432 541334 525
11592 947540 525
900215 272828 525
220768 872696 525
24433 758736 509
348031 375897 410
79992 19314 351
21862 44394 324
47031 86320 351
69433 91593 351
21276 59084 340
76504 51868 340
92019 6068 351
82693 5168 351
86309 81462 320
51140 10965 324
2769 95219 351
48392 80165 351
95898 13294 351
60915 57802 317
55612 491 340
91706 2406 351
42703 8086 324
10313 64977 340
60135 95737 351
64380 91406 351
96674 93520 328
76001 90676 351
78433 75207 351
14568 97997 351
30685 47216 324
85850 84804 302
31774 67101 340
57881 66121 335
73030 58936 335
76041 42588 340
41548 50543 314
91264 6725 351
97388 82794 333
13432 82341 351
670 55162 340
21472 26668 308
50467 43394 314
28462 59437 340
40972 36863 306
61485 12487 340
55245 1700 340
56266 62418 335
65797 11647 340
86578 76737 351
85798 27122 351
12585 67250 340
71157 94799 351
39527 67658 340
53427 6044 340
49235 63832 340
4895 9145 262
3899 8094 262
3968 3475 238
5808 9701 262
1534 1639 167
6915 4497 262
4066 8512 262
2763 5904 238
8636 6986 252
7500 9455 260
8457 4396 262
5175 3284 238
507 4527 238
7879 7938 190
1193 2036 180
7293 4739 262
7342 4361 262
5751 8326 262
9912 9392 242
2141 6775 262
9752 2056 262
4304 2669 238
4517 7198 262
2829 6539 262
5010 2400 238
5251 6453 262
2689 1032 209
8632 8392 203
6624 2993 262
2274 7093 262
1411 5527 238
6436 6680 244
6047 9336 262
5563 3127 238
896 1987 182
527 5075 238
2455 4909 238
7468 9542 260
7927 4002 262
5139 7448 262
1 1 1
2 2 2
3 3 8
4 4 3
5 5 6
6 6 9
7 7 17
8 8 4
9 9 20
1000 1000 112
10000 10000 30
100000 100000 129
999999 999999 259
